Nombre;Código DMH;Código OMM;Departamento;Ciudad;Altitud;Latitud;Longitud
Capiatá - Arroyo San Lorenzo;2000086203;2000086203;Central;Capiatá;0;-25.315792;-57.455028
ASdeA - Campo Comunal de Campo Largo;86067;86067;Presidente Hayes;Tte. 1° Manuel Irala Fernández;129;-22.82451;-59.913295
Pozuelo;6000086284;6086284;Canindeyú;Nueva Esperanza;268;-24.5761718;-54.34148193
UNP - Facultad de Ciencias Agropecuarias y Desarrollo Rural;86256;86256;Ñeembucú;Pilar;59;-26.880828;-58.287989
Cooperativa La Paz Agrícola Limitada;4000086288;4000086288;Itapúa;La Paz;217;-26.992328;-55.895768
Agriplus S.A. Arazape;86262;86262;Misiones;San Miguel;75;-26.59311944;-56.85182778
Cooperativa Multiactiva Neuland Ltda, Aeropuerto de Neuland;4000086069;4000086069;Boquerón;Mariscal José Félix Estigarribia;138;-22.671634;-60.117298
UNCA - Facultad Ciencias de la Producción Filial Juan Manuel Frutos;4000086235;4000086235;Caaguazú;Dr. Juan Manuel Frutos;306;-25.376354;-55.838978
Mariano Roque Alonso;5000086221;;Central;Mariano Roque Alonso;0;0;0
Aeropuerto Internacional Guarani;86246;86246;Alto Paraná;Minga Guazú;247;-25.45590833;-54.83871667
Base Aérea Gral. Div. Adrián Jara;86011;86011;Alto Paraguay;Bahía Negra;139;-19.541573;-59.494924
Establecimiento La Juanita;4000086221;4000086221;Paraguarí;Ybycuí;361;-26.027287;-56.882344
Establecimiento Monarca;86241;86241;Caaguazú;Carayaó;191;-25.234322;-56.280103
CNSB - San Bernardino;86222;86222;Cordillera;San Bernardino;63;-25.31272222;-57.30016944
Arroyos y Esteros - Rio Yhahuy;2000086226;2000086226;Cordillera;Arroyos Y Esteros;0;-25.046557;-57.053708
Agriplus S.A. Palmares;86258;;Ñeembucú;Villa Franca;63;-26.221225;-57.980948
Cooperativa Chortitzer Ltda, Las Palmas;4000086012;4000086012;Alto Paraguay;Puerto Casado;125;-21.736517;-59.553068
Aeropuerto Tte. PAM Carmelo Peralta;86134;86134;Concepción;Concepción;75;-23.440819;-57.4303
Base Aérea Nueva Asunción;86017;86017;Boquerón;Mariscal José Félix Estigarribia;316;-20.710865;-61.92491
Cooperativa Chortitzer Ltda, Lolita;4000086079;4000086079;Presidente Hayes;Tte. 1° Manuel Irala Fernández;119;-23.027833;-59.661333
IPTA - Chacra Experimental de Choré;86186;86186;San Pedro;Choré;222;-24.17884722;-56.60174722
Paranambu;6000086281;6086281;Alto Paraná;Ñacunday;168;-25.98146768;-54.68054439
Iturbe - Rio Tebicuarymi;2000086231;2000086231;Guairá;Iturbe;0;-26.050942;-56.497627
Cooperativa Chortitzer Ltda, Buena Vista;4000086077;4000086077;Presidente Hayes;Tte. 1° Manuel Irala Fernández;122;-22.591468;-59.707254
Helipuerto del Palacio De López - Costanera de Asunción;86206;86206;Central;Asunción;68;-25.276701;-57.637571
Cooperativa Friesland;4000086183;4000086183;San Pedro;Itacurubí Del Rosario;110;-24.6085;-56.7873
Cooperativa Chortitzer Ltda, Kleinstadt;4000086076;4000086076;Boquerón;Loma Plata;129;-22.490523;-59.928506
UNCA - Campo Experimental de la Facultad de Ciencias de la Producción - Caaguazú;86230;86230;Caaguazú;Caaguazú;349;-25.471952;-55.950847
Yuty - Rio Tebicuary;2000086259;2000086259;Caazapá;Yuty;;-26.715513;-56.281186
Sede Central de Fecoprod;4000086218;4000086218;Central;Asunción;87;-25.262721;-57.581934
Base Aerea Tte. Mna. Pelayo Prats Gill;86065;86065;Boquerón;Mariscal José Félix Estigarribia;210;-22.558443;-61.612781
Aeropuerto Cap. Bernardino Caballero;86210;86210;Canindeyú;Salto Del Guairá;299;-24.03238056;-54.353525
UCA - Facultad de Ciencias Agropecuarias Sede Hohenau;86299;86299;Itapúa;Hohenau;189;-27.061644;-55.642327
Cooperativa Chortitzer Ltda, Campo Leon;4000086168;4000086168;Presidente Hayes;Tte. 1° Manuel Irala Fernández;117;-22.5552;-59.5428
Puente kyjha;6000086282;6086282;Canindeyú;Francisco Caballero Alvarez;317;-24.34043509;-54.65044773
Secretaria Nacional de Deportes;86207;86207;Central;Asunción;151;-25.316375;-57.57952778
Cooperativa  Ferhein - Campo´i;4000086072;4000086072;Boquerón;Mariscal José Félix Estigarribia;161;-22.090989;-60.47688
Naranjahai;2000086220;;Cordillera;Arroyos Y Esteros;0;-24.974343;-57.213917
Compañía Agro Tabacalera S.A.;86189;86189;San Pedro;Choré;218;-24.17326;-56.59893
Cooperativa Unión Curupayty Ltda;4000086248;4000086248;Alto Paraná;Santa Rosa Del Monday;302;-25.8425;-54.9712
IPTA - Centro de Investigación Hernando Bertoni;86220;86220;Cordillera;Caacupé;268;-25.39023333;-57.18768333
Aeropuerto Internacional Silvio Pettirossi;86218;86218;Central;Luque;83;-25.23582222;-57.514725
Tres Cerros;2000086089;;Concepción;Concepción;81;-22.287686;-57.878817
Agro Serrana S.A.;86281;86281;Itapúa;San Rafael Del Paraná;333;-26.478485;-55.051473
Cooperativa Chortitzer Ltda, Paratodo;4000086169;4000086169;Presidente Hayes;Tte. 1° Manuel Irala Fernández;119;-23.226546;-59.602666
CNSB;2000086222;;Cordillera;San Bernardino;0;-25.312788;-57.300147
Cooperativa Sommerfeld Ltda;4000086233;4000086233;Caaguazú;Dr. J. Eulogio Estigarribia;255;-25.43377;-55.695866
Loma Pyta;5000086202;5000086202;Central;Asunción;0;-25.240306;-57.543419
Alberdi;2000086251;2000086251;Ñeembucú;Alberdi;;-26.1667;-58.15
Asociación Tesai Reka Paraguay - Chokokue Reta;86238;86238;Caaguazú;Simón Bolivar;117;-25.088368;-56.376187
Capiatá;5000086216;5000086216;Central;Capiatá;0;-25.388078;-57.471125
UNA - Facultad de Ciencias Agrarias filial San Pedro del Ycuamandyyú;4000086188;4000086188;San Pedro;San Pedro Del Ycuamandyyú;94;-24.082581;-57.073689
Nueva Esperanza;6000086287;6086287;Canindeyú;Francisco Caballero Alvarez;317;-24.34043509;-54.65044773
Fortín General Bruguez;86170;86170;Presidente Hayes;General José María Bruguez;91;-24.741691;-58.835922
ASdeA - Campo Ferial de Pozo Hondo;86061;86061;Boquerón;Mariscal José Félix Estigarribia;257;-22.357001;-62.510994
IPTA - Campo Experimental Chaco Central Km 412;86177;86177;Presidente Hayes;Tte. 1° Manuel Irala Fernández;121;-22.678362;-59.771035
Aregua - Arroyo Yukyrymi;2000086204;2000086204;Central;Areguá;0;-25.347547;-57.416533
UCA - Facultad de Ciencias Agropecuarias Sede Cnel. Oviedo;86236;86236;Caaguazú;Coronel Oviedo;168;-25.460107;-56.462447
Paraguari;5000086220;;Paraguarí;Paraguarí;0;0;0
Aeropuerto Prof. Dr. Augusto Fuster;86097;86097;Amambay;Pedro Juan Caballero;564;-22.640315;-55.832572
Centro de Investigación del Chaco Americano  - Fundación Manuel Gondra;86181;86181;Presidente Hayes;Benjamín Aceval;65;-24.961589;-57.368561
Municipalidad de Fulgencio Yegros;86264;86264;Caazapá;Yegros;113;-26.457342;-56.403309
Ñemby;5000086215;5000086215;Central;Ñemby;0;-25.368667;-57.566207
UNC - Universidad Nacional de Concepción;4000086134;4000086134;Concepción;Loreto;86;-23.410533;-57.41252
Destacamento Naval Cerrito;86254;86254;Ñeembucú;Cerrito;65;-27.344771;-57.641127
GL South America;86228;86228;Central;Villeta;71;-25.629215;-57.587116
5ta. División de Infantería - Mayor Pablo Lagerenza;86004;86004;Alto Paraguay;Bahía Negra;199;19.929635;-60.771441
Cooperativa Multiactiva Carlos Pfannl Ltda;4000086231;4000086231;Guairá;Independencia;226;-25.6983;-56.1347
Cooperativa Volendam Ltda;4000086186;4000086186;San Pedro;Villa Del Rosario;116;-24.259028;-56.839308
UNI - Facultad de Ciencias Agropecuarias y Forestales Filial Gral. Artigas;86286;86286;Itapúa;General Artigas;146;-26.93461;-56.22985
Itá;5000086218;5000086218;Central;Itá;0;-25.468525;-57.355094
Villa Elisa;5000086219;;Central;Villa Elisa;0;0;0
UNI - Sede Central Campus de la Universidad Nacional de Itapúa;86283;86283;Itapúa;Encarnación;125;-27.305854;-55.886953
Aeropuerto Prof. Dr. Luis Maria Argaña;86068;86068;Boquerón;Mariscal José Félix Estigarribia;168;-22.030522;-60.618665
Fernando de la Mora;86225;86225;Central;Fernando De La Mora;150;-25.31832222;-57.54435556
Facultad de Ingeniería Agronómica - UNE;86247;86247;Alto Paraná;Minga Guazú;258;-25.495372;-54.772701
Villa Oliva Rice S.A.;86257;86257;Ñeembucú;Villa Oliva;62;-26.055942;-57.898991
Facultad de Ciencias Agrarias;4000086096;4000086096;Amambay;Pedro Juan Caballero;527;-22.652;-55.8935
Municipalidad de 3 de Mayo;86263;86263;Caazapá;3 De Mayo;178;-26.481697;-56.095617
FCP - UNCA - Campus Universitario Arandu Poty;4000086238;4000086238;Caaguazú;Coronel Oviedo;138;-25.498271;-56.459004
Centro Educativo Departamental Municipal Nueva Italia;86205;86205;Central;Nueva Italia;97;-25.599169;-57.460051
Asunción (Puerto) - Río Paraguay;2000086201;2000086201;Central;Asunción;;-25.435;-57.614
Cooperativa Chortitzer Ltda, Campo Cale;4000086074;4000086074;Boquerón;Loma Plata;131;-22.064822;-59.684319
Pirapo Tavai - Río Pirapo Tavai;2000086269;2000086269;Itapúa;Pirapó;;-26.315513;-56.281186
Municipalidad de Yby Yau;4000086132;4000086132;Concepción;Yby Yau;185;-22.966622;-56.540334
CEFA - Centro Educativo Familiar Agrícola;4000086203;4000086203;Canindeyú;Villa Curuguaty;220;-24.465244;-55.708593
Colonia Bergthal;4000086234;4000086234;Caaguazú;Raúl Arsenio Oviedo;244;-25.242065;-55.591687
Hohenau - Arroyo Capiibary;2000086292;2000086292;Itapúa;Hohenau;0;-27.074901;-55.676723
Yvytu Rokai;6000086285;6086285;Alto Paraná;Mbaracayú;231;-25.0313765;-54.49150684
Cooperativa Colonias Unidas, Edelira 60;4000086297;4000086297;Itapúa;Edelira;113;-26.5766;-55.4975
Establecimiento Cerrito;86086;86086;Alto Paraguay;Puerto Casado;80;-22.109632;-58.021077
Radio Comunitaria FM Joven 96.1;86070;86070;Alto Paraguay;Carmelo Peralta;81;-21.68578;-57.902378
UNA - Facultad de Ciencias Agrarias Campus San Lorenzo;4000086216;4000086216;Central;San Lorenzo;128;-25.336185;-57.517605
Junta Municipal de Ayolas;86261;86261;Misiones;Ayolas;66;-27.39820556;-56.85254722
UNI - Facultad de Ciencias Agropecuarias y Forestales Filial Natalio;86284;86284;Itapúa;Natalio;250;-26.759278;-55.134545
Cooperativa Raul Peña Ltda;4000086244;4000086244;Alto Paraná;Dr. Raúl Peña;363;-26.151564;-55.278406
Cooperativa Pindo;4000086245;4000086245;Alto Paraná;San Cristóbal;301;-25.893105;-55.473762
Club Social Villa Permanente San Cosme y San Damián;86295;86295;Itapúa;San Cosme Y Damián;125;-27.31454086;-56.339534
Cooperativa Coopasam Ltda;4000086240;4000086240;Alto Paraná;Minga Porá;381;-24.7319;-54.9562
Trinidad y Jesús - Arroyo Capiibary;2000086291;2000086291;Itapúa;Trinidad;0;-27.113868;-55.698599
Granja Eco-turística Yvambopi;4000086237;4000086237;Caaguazú;Coronel Oviedo;164;-25.488769;-56.253741
Cooperativa Pirapo;4000086298;4000086298;Itapúa;Pirapó;173;-26.862799;-55.53545
Cooperativa Chortitzer Ltda, Loma Plata;4000086075;4000086075;Boquerón;Loma Plata;132;-22.398367;-59.837633
Establecimiento Las Colinas;86190;86190;Cordillera;Valenzuela;193;-25.542353;-56.875992
CETAPAR - Centro Tecnológico Agropecuario del Paraguay;4000086239;4000086239;Alto Paraná;Yguazú;234;-25.4523;-55.0455
Cabaña Don Zeno;86291;86291;Itapúa;Trinidad;150;-27.163959;-55.668745
Santa Teresa;4000086236;4000086236;Caaguazú;Mariscal Francisco Solano López;267;-25.2396;-55.0721
Establecimiento Sombrero Hovy;86107;86107;Presidente Hayes;Tte. 1° Manuel Irala Fernández;141;-23.576416;-60.368375
CECTEC - Centro Agroecológico Pirapey;86290;86290;Itapúa;Edelira;244;-26.646911;-55.267131
Cooperativa Chortitzer Ltda, Isla Poi;4000086078;4000086078;Presidente Hayes;Tte. 1° Manuel Irala Fernández;127;-22.492161;-59.731473
"2ª División de Caballería ""Gral. de Brigada Alfredo Patricio Ramos""";86260;86260;Misiones;San Juan Bautista De Las Misiones;133;-26.67058991;-57.13434177
Centro Meteorológico Nacional;86217;86217;Central;Asunción;121;-25.28633611;-57.65531667
Establecimiento Garay Kue;4000086135;4000086135;Concepción;San Carlos Del Apa;157;-22.692116;-57.368822
Aeropuerto Mayor PAM Job Von Zastrow;86185;86185;San Pedro;San Pedro Del Ycuamandyyú;112;-24.029082;-57.022765
Arroyo Ypacarai;2000086221;;Central;Ypacaraí;0;-25.388518;-57.269347
Costanera Encarnación;86297;86297;Itapúa;Encarnación;88;-27.340648;-55.869715
Comando de Artillería del Ejército (COMARTE);86221;86221;Paraguarí;Paraguarí;123;-25.60413;-57.148642
Carapa;6000086283;6086283;Canindeyú;Salto Del Guairá;239;-24.37485461;-54.37923842
Estación Los Tres Gigantes - Guyra Paraguay;86029;86029;Alto Paraguay;Bahía Negra;84;-20.078086;-58.160481
Radio Pai Puku;86180;86180;Presidente Hayes;Tte. 1° Manuel Irala Fernández;119;-22.80243889;-59.59729167
Asociación Tesai Reka Paraguay - Koe Pora;86196;86196;Canindeyú;Villa Ygatimí;156;-24.054961;-55.813847
Biblioteca Municipal de Ciudad del Este;86248;86248;Alto Paraná;Ciudad Del Este;198;-25.51945749;-54.61238572
Asociación Agropecuaria de Agua Dulce;86022;86022;Alto Paraguay;Bahía Negra;144;-19.966132;-59.778902
Establecimiento Miguel y Jesús;86240;86240;Paraguarí;Quiindy;187;-25.996921;-57.223339
Itabo ;6000086279;6086279;Alto Paraná;Mbaracayú;270;-25.06982954;-54.71515094
Puesta del Sol (Itaipú) - Gral. Delgado;86287;86287;Itapúa;General Delgado;108;-27.096437;-56.531822
Aeropuerto Cap. Walter Gwynn;86234;86234;Caaguazú;Coronel Oviedo;150;-25.51538889;-56.40836389
Aeródromo Tte 1° Inocencio Herebia;86034;86034;Alto Paraguay;Fuerte Olimpo;65;-21.041857;-57.879948
Aeropuerto Municipal Vallemi;86088;86088;Concepción;San Lázaro;81;-22.160499;-57.942697
Villa Florida - Rio Tebicuary;2000086260;2000086260;Misiones;Villa Florida;;-26.403361;-57.129472
San Miguel, Quyquyho;86251;86251;Paraguarí;Quyquyhó;141;-26.22373;-56.990008
Rio Aguaray;2000086193;;San Pedro;Santa Rosa Del Aguaray;0;-23.869574;-56.508903
CITEC - FIUNA Centro de Innovación Tecnológica;86212;86212;Central;Luque;142;-25.296267;-57.489274
Base Naval Bahia Negra;86033;86033;Alto Paraguay;Bahía Negra;83;-20.228736;-58.1691
Rio Jejuí;2000086191;;San Pedro;General Francisco Isidoro Resquín;0;-24.101208;-56.446334
Pilar;2000086256;2000086256;Ñeembucú;Pilar;52;-26.869056;-58.322828
Establecimiento Pariri;86171;86171;Presidente Hayes;José Falcón;65;-25.170016;-57.718587
Col. Nac. EMD Sebastián De Yegros;86192;86192;San Pedro;San Estanislao;189;-24.66522743;-56.4570926
Aeropuerto Tte. Amín Ayub González;86298;86298;Itapúa;Encarnación;200;-27.22075685;-55.83406804
Establecimiento Nueve Lunas;86027;86027;Boquerón;Mariscal José Félix Estigarribia;182;-21.530996;-60.896184
Unidad de Gestión de Riesgo - MAG - San Joaquín;86239;86239;Caaguazú;San Joaquín;347;-25.034385;-56.049793
3ra. División de Caballería;86200;86200;Canindeyú;Villa Curuguaty;207;-24.497552;-55.686686
IPTA - Campo Experimental Natalicio Talavera;86232;86232;Guairá;Natalicio Talavera;184;-25.664572;-56.310988
UCA - Facultad de Ciencias y Tecnología Campus Sta. Librada - Asunción;86209;86209;Central;Asunción;79;-25.324221;-57.638974
RC1 Cnel Valois Rivarola;86128;86128;Presidente Hayes;Villa Hayes;99;-23.496797;-58.790672
San Luis (Itaipú) - San Juan Nepomuceno;86229;86229;Caazapá;San Juan Nepomuceno;151;-26.105238;-55.938739
Acuicultura;6000086276;6086276;Alto Paraná;Hernandarias;215;-25.44249995;-54.62842938
Limoy ;6000086278;6086278;Alto Paraná;San Alberto;253;-24.75895393;-54.45680979
Usina;6000086275;6086275;Alto Paraná;Hernandarias;233;-25.40636236;-54.61731431
Base Aérea Cnel. DEM José María Argaña;86285;86285;Itapúa;Capitán Meza;258;-26.83407778;-55.33176389
Puente RN 3 - Río Ypane;2000086194;2000086194;San Pedro;Tacuatí;93;-23.42418;-56.493036
San Alberto;6000086277;6086277;Alto Paraná;San Alberto;331;-24.95178078;-54.94838003
Pikyry;6000086286;6086286;Alto Paraná;Santa Fe Del Paraná;242;-25.20313468;-54.51872788
UNICAN - Facultad de Ciencias Agropecuarias y Ambientales filial Katueté;4000086209;4000086209;Canindeyú;Katueté;369;-24.246894;-54.749561
Aeródromo PAC. Berta Servian;86268;86268;Caazapá;Caazapá;139;-26.16985556;-56.359875
Establecimiento Santa Teresa;86095;86095;Amambay;Bella Vista;165;-22.616048;-56.636163
Mbaracayu ;6000086280;6086280;Canindeyú;Salto Del Guairá;263;-24.05436313;-54.29832657
Aeropuerto Carlos Miguel Gimenez;86255;86255;Ñeembucú;Pilar;59;-26.88117222;-58.31846944
TEE - Tropas Especiales del Ejercito, Cerrito;86179;86179;Presidente Hayes;Benjamín Aceval;85;-24.962892;-57.550335
Juan Manuel Frutos;86237;86237;Caaguazú;Dr. Juan Manuel Frutos;318;-25.386121;-55.83311
2ª División de Infantería “El Carmen”;86233;86233;Guairá;Villarrica;162;-25.75398778;-56.43803145
Santa Inés (Itaipú) - Yuty;86267;86267;Caazapá;Yuty;140;-26.618139;-56.249355
MOPC - Ruta 10 - Planagro;86198;86198;Canindeyú;Yby Pytá;265;-24.43768;-55.363138
Destacamento Militar Tte. Esteban Martinez;86172;86172;Presidente Hayes;Teniente Esteban Martínez;124;-24.087962;-59.81302
UNA - Facultad de Ciencias Agrarias Campus San Lorenzo;86216;86216;Central;San Lorenzo;128;-25.336185;-57.517605
Municipalidad Filadelfia;86069;86069;Boquerón;Filadelfia;140;-22.360655;-60.02515
San Ignacio de Loyola;86227;86227;Caaguazú;San José De Los Arroyos;117;-25.528517;-56.738801
LME - FIUNA LABORATORIO DE MECANICA Y ENERGIA;86214;;Central;San Lorenzo;128;-25.331522;-57.516835
